Politikwissenschaftliche Statistik mit R. Sitzung 8: Bivariate lineare Regression (OLS)
…
lm_glance_lijphart <- glance(lm_lijphart)
lm_glance_lijphart

## # A tibble: 1 x 12
##   r.squared adj.r.squared sigma statistic  p.value    df logLik   AIC   BIC
##       <dbl>         <dbl> <dbl>     <dbl>    <dbl> <dbl>  <dbl> <dbl> <dbl>
## 1     0.323         0.303 0.950      16.2 0.000303     1  -48.2  102.  107.
## # … with 3 more variables: deviance <dbl>, df.residual <int>, nobs <int>

Zusätzlich können wir auch Modellvorhersagen und Residuen speichern. Diese Metriken helfen uns dabei die Modellgüte zu beurteilen. Sind z.B. die Residuen eines Regressionsmodells nicht normal verteilt (das können wir in einem ersten Schritt mit einem Histogramm graphisch abtesten), dann müssen wir davon ausgehen das unser Modell verzerrt ist. Wir speichern die Modellvorhersagen und Residuen mit der augment()-Funktion und speichern die Informationen in dem neuen Objekt lm_aug_lijphart.

lm_aug_lijphart <- augment(lm_lijphart)
lm_aug_lijphart

## # A tibble: 36 x 8
##    enpp4510 disprop4510 .fitted  .resid   .hat .sigma  .cooksd .std.resid
##       <dbl>       <dbl>   <dbl>   <dbl>  <dbl>  <dbl>    <dbl>      <dbl>
##  1     3.15       18.0     2.20  0.952  0.0954  0.949 0.0585        1.05 
##  2     2.22        9.44    3.10 -0.877  0.0284  0.952 0.0128       -0.937
##  3     2.68        2.51    3.83 -1.15   0.0554  0.942 0.0453       -1.24 
##  4     1.69       16.5     2.36 -0.666  0.0756  0.957 0.0217       -0.729
##  5     1.68       17.3     2.27 -0.593  0.0856  0.958 0.0199       -0.652
##  6     4.72        3.35    3.74  0.981  0.0483  0.949 0.0284        1.06 
##  7     1.38       14.6     2.55 -1.17   0.0557  0.941 0.0476       -1.27 
##  8     2.52       11.6     2.87 -0.354  0.0347  0.962 0.00258      -0.379
##  9     2.67       14.4     2.58  0.0930 0.0536  0.964 0.000287      0.101
## 10     4.57        1.71    3.91  0.658  0.0633  0.957 0.0173        0.716
## # … with 26 more rows
…
